5,171,-182.96992281821457,0
10,240,-149.4522205202731,0
4,137,-122.59214402123786,0
9,201,-79.89150958687412,0
3,94,-68.87199102316731,0
2,44,-29.155809533140825,0
8,150,-16.299704542149584,0
1,-10,-6.428052495495649,0
7,87,35.583862028636474,0
6,7,70.47900414704122,0
57,296,138.43270195656632,0
37,19,139.35099517020856,0
