5,298,-14.233544811454578,0
4,223,-8.26463892278008,0
3,148,-4.132319461390068,0
2,74,-1.3774398204633371,0
1,0,-0.22957330341057514,0
10,304,61.75521861744005,0
9,229,67.2649778992934,0
8,153,71.85644396750456,0
7,78,74.84089691184181,0
6,0,76.90705664253687,0
57,296,138.6622752599769,0
37,20,139.35099517020856,0
