5,301,-7.116772405727318,0
4,225,-5.050612675032255,0
3,148,-2.7548796409266743,0
2,75,-1.1478665170528188,0
1,0,-0.0,0
10,303,68.87199102316731,0
9,228,70.7085774504518,0
8,152,73.00431048455738,0
7,78,75.07047021525239,0
6,0,76.90705664253687,0
57,296,138.20312865315577,0
37,20,139.121421866798,0
